[
  {
    "variants": ["Red", "Blue", "Green", "White", "Orange", "Navy"],
    "title": "Color",
    "name": "Color",
    "option": "Dropdown"
  },
  {
    "variants": ["S", "M", "L", "XL"],
    "title": "Size",
    "name": "Size",
    "option": "Radio"
  },
  {
    "variants": ["Premium", "Platinum"],
    "title": "Material",
    "name": "Material",
    "option": "Radio"
  },
  {
    "variants": ["Cotton", "Silk", "Nylon"],
    "title": "Fabric",
    "name": "Fabric",
    "option": "Radio"
  },
  {
    "variants": ["60X80", "80X100", "100X120"],
    "title": "Dimension",
    "name": "Dimension",
    "option": "Radio"
  },
  {
    "variants": ["Yes", "No"],
    "title": "Waterproof",
    "name": "Waterproof",
    "option": "Radio"
  },
  {
    "variants": ["Ruled", "Plain", "Squarred", "Doted"],
    "title": "Paper",
    "name": "Paper Type",
    "option": "Dropdown"
  }
]
