[
  {
    "symbol": "€",
    "iso_code": "eur",
    "exchange_rate": 1.0,
    "enabled": "show",
    "live_exchange_rates": "show"
  },
  {
    "symbol": "$",
    "iso_code": "usd",
    "exchange_rate": 1.0,
    "enabled": "show",
    "live_exchange_rates": "hide"
  },
  {
    "symbol": "£",
    "iso_code": "gbp",
    "exchange_rate": 1.0,
    "enabled": "hide",
    "live_exchange_rates": "show"
  }
]
